{
  "name": "UserTableWidth",
  "base": "PersistedModel",
  "idInjection": true,
  "options": {
    "validateUpsert": true
  },
  "properties": {
    "userName": {
      "type": "number",
      "required": true
    },
    "firstName": {
      "type": "number",
      "required": true
    },
    "lastName": {
      "type": "number",
      "required": true
    },
    "numberOfIndividuals": {
      "type": "number",
      "required": true
    },
    "role": {
      "type": "number",
      "required": true
    },
    "username": {
      "type": "string",
      "required": true
    }
  },
  "validations": [],
  "relations": {},
  "acls": [],
  "methods": {}
}
